GFORTRAN module version '10' created from mldat.f90
MD5:c7ece228e5023743bd7bad9a03885f86 -- If you edit this, you'll get what you deserve.

(() () () () () () () () () () () () () () () () () () () () () () () ()
() () ())

()

()

()

()

()

(2 'cnc1' 'mldat' '' 1 ((VARIABLE UNKNOWN-INTENT UNKNOWN-PROC UNKNOWN
EXPLICIT-SAVE 0 0) (REAL 4 0 0 0 REAL ()) 0 0 () () 0 () () () 0 0)
3 'cnc2' 'mldat' '' 1 ((VARIABLE UNKNOWN-INTENT UNKNOWN-PROC UNKNOWN
EXPLICIT-SAVE 0 0) (REAL 4 0 0 0 REAL ()) 0 0 () () 0 () () () 0 0)
4 'dfc' 'mldat' '' 1 ((VARIABLE UNKNOWN-INTENT UNKNOWN-PROC UNKNOWN
EXPLICIT-SAVE 0 0) (REAL 4 0 0 0 REAL ()) 0 0 () () 0 () () () 0 0)
5 'gm' 'mldat' '' 1 ((VARIABLE UNKNOWN-INTENT UNKNOWN-PROC UNKNOWN
EXPLICIT-SAVE 0 0) (REAL 4 0 0 0 REAL ()) 0 0 () () 0 () () () 0 0)
6 'mid' 'mldat' '' 1 ((VARIABLE UNKNOWN-INTENT UNKNOWN-PROC UNKNOWN
EXPLICIT-SAVE 0 0) (REAL 4 0 0 0 REAL ()) 0 0 () () 0 () () () 0 0)
7 'mldat' 'mldat' '' 1 ((MODULE UNKNOWN-INTENT UNKNOWN-PROC UNKNOWN
UNKNOWN 0 0) (UNKNOWN 0 0 0 0 UNKNOWN ()) 0 0 () () 0 () () () 0 0)
8 'n1' 'mldat' '' 1 ((VARIABLE UNKNOWN-INTENT UNKNOWN-PROC UNKNOWN
EXPLICIT-SAVE 0 0) (REAL 4 0 0 0 REAL ()) 0 0 () () 0 () () () 0 0)
9 'n2' 'mldat' '' 1 ((VARIABLE UNKNOWN-INTENT UNKNOWN-PROC UNKNOWN
EXPLICIT-SAVE 0 0) (REAL 4 0 0 0 REAL ()) 0 0 () () 0 () () () 0 0)
10 'nre1' 'mldat' '' 1 ((VARIABLE UNKNOWN-INTENT UNKNOWN-PROC UNKNOWN
EXPLICIT-SAVE 0 0) (REAL 4 0 0 0 REAL ()) 0 0 () () 0 () () () 0 0)
11 'nre2' 'mldat' '' 1 ((VARIABLE UNKNOWN-INTENT UNKNOWN-PROC UNKNOWN
EXPLICIT-SAVE 0 0) (REAL 4 0 0 0 REAL ()) 0 0 () () 0 () () () 0 0)
12 'rr1' 'mldat' '' 1 ((VARIABLE UNKNOWN-INTENT UNKNOWN-PROC UNKNOWN
EXPLICIT-SAVE 0 0) (REAL 4 0 0 0 REAL ()) 0 0 () () 0 () () () 0 0)
13 'rr2' 'mldat' '' 1 ((VARIABLE UNKNOWN-INTENT UNKNOWN-PROC UNKNOWN
EXPLICIT-SAVE 0 0) (REAL 4 0 0 0 REAL ()) 0 0 () () 0 () () () 0 0)
14 'rr3' 'mldat' '' 1 ((VARIABLE UNKNOWN-INTENT UNKNOWN-PROC UNKNOWN
EXPLICIT-SAVE 0 0) (REAL 4 0 0 0 REAL ()) 0 0 () () 0 () () () 0 0)
15 'shvis' 'mldat' '' 1 ((VARIABLE UNKNOWN-INTENT UNKNOWN-PROC UNKNOWN
EXPLICIT-SAVE 0 0 ALLOCATABLE DIMENSION) (REAL 4 0 0 0 REAL ()) 0 0 () (
4 0 DEFERRED () () () () () () () ()) 0 () () () 0 0)
16 'ststerr' 'mldat' '' 1 ((VARIABLE UNKNOWN-INTENT UNKNOWN-PROC UNKNOWN
EXPLICIT-SAVE 0 0) (REAL 4 0 0 0 REAL ()) 0 0 () () 0 () () () 0 0)
17 'teststep' 'mldat' '' 1 ((VARIABLE UNKNOWN-INTENT UNKNOWN-PROC
UNKNOWN EXPLICIT-SAVE 0 0) (INTEGER 4 0 0 0 INTEGER ()) 0 0 () () 0 () ()
() 0 0)
18 'th' 'mldat' '' 1 ((VARIABLE UNKNOWN-INTENT UNKNOWN-PROC UNKNOWN
EXPLICIT-SAVE 0 0) (REAL 4 0 0 0 REAL ()) 0 0 () () 0 () () () 0 0)
19 'thi' 'mldat' '' 1 ((VARIABLE UNKNOWN-INTENT UNKNOWN-PROC UNKNOWN
EXPLICIT-SAVE 0 0) (REAL 4 0 0 0 REAL ()) 0 0 () () 0 () () () 0 0)
20 'tmpst' 'mldat' '' 1 ((VARIABLE UNKNOWN-INTENT UNKNOWN-PROC UNKNOWN
EXPLICIT-SAVE 0 0 ALLOCATABLE DIMENSION) (REAL 4 0 0 0 REAL ()) 0 0 () (
4 0 DEFERRED () () () () () () () ()) 0 () () () 0 0)
21 'trues' 'mldat' '' 1 ((VARIABLE UNKNOWN-INTENT UNKNOWN-PROC UNKNOWN
EXPLICIT-SAVE 0 0 ALLOCATABLE DIMENSION) (LOGICAL 4 0 0 0 LOGICAL ()) 0
0 () (4 0 DEFERRED () () () () () () () ()) 0 () () () 0 0)
22 'udiff1' 'mldat' '' 1 ((VARIABLE UNKNOWN-INTENT UNKNOWN-PROC UNKNOWN
EXPLICIT-SAVE 0 0) (REAL 4 0 0 0 REAL ()) 0 0 () () 0 () () () 0 0)
23 'udiff2' 'mldat' '' 1 ((VARIABLE UNKNOWN-INTENT UNKNOWN-PROC UNKNOWN
EXPLICIT-SAVE 0 0) (REAL 4 0 0 0 REAL ()) 0 0 () () 0 () () () 0 0)
24 'um1' 'mldat' '' 1 ((VARIABLE UNKNOWN-INTENT UNKNOWN-PROC UNKNOWN
EXPLICIT-SAVE 0 0) (REAL 4 0 0 0 REAL ()) 0 0 () () 0 () () () 0 0)
25 'um2' 'mldat' '' 1 ((VARIABLE UNKNOWN-INTENT UNKNOWN-PROC UNKNOWN
EXPLICIT-SAVE 0 0) (REAL 4 0 0 0 REAL ()) 0 0 () () 0 () () () 0 0)
26 'uxbc' 'mldat' '' 1 ((VARIABLE UNKNOWN-INTENT UNKNOWN-PROC UNKNOWN
EXPLICIT-SAVE 0 0 ALLOCATABLE DIMENSION) (REAL 4 0 0 0 REAL ()) 0 0 () (
4 0 DEFERRED () () () () () () () ()) 0 () () () 0 0)
27 'uybc' 'mldat' '' 1 ((VARIABLE UNKNOWN-INTENT UNKNOWN-PROC UNKNOWN
EXPLICIT-SAVE 0 0 ALLOCATABLE DIMENSION) (REAL 4 0 0 0 REAL ()) 0 0 () (
4 0 DEFERRED () () () () () () () ()) 0 () () () 0 0)
28 'yy1' 'mldat' '' 1 ((VARIABLE UNKNOWN-INTENT UNKNOWN-PROC UNKNOWN
EXPLICIT-SAVE 0 0) (REAL 4 0 0 0 REAL ()) 0 0 () () 0 () () () 0 0)
29 'yy2' 'mldat' '' 1 ((VARIABLE UNKNOWN-INTENT UNKNOWN-PROC UNKNOWN
EXPLICIT-SAVE 0 0) (REAL 4 0 0 0 REAL ()) 0 0 () () 0 () () () 0 0)
)

('cnc1' 0 2 'cnc2' 0 3 'dfc' 0 4 'gm' 0 5 'mid' 0 6 'mldat' 0 7 'n1' 0 8
'n2' 0 9 'nre1' 0 10 'nre2' 0 11 'rr1' 0 12 'rr2' 0 13 'rr3' 0 14 'shvis'
0 15 'ststerr' 0 16 'teststep' 0 17 'th' 0 18 'thi' 0 19 'tmpst' 0 20
'trues' 0 21 'udiff1' 0 22 'udiff2' 0 23 'um1' 0 24 'um2' 0 25 'uxbc' 0
26 'uybc' 0 27 'yy1' 0 28 'yy2' 0 29)
